Temperature,Radiance
213.3,9.00254660194971
213.4,9.02832794381377
213.5,9.054160784643376
213.60000000000002,9.08004517380801
213.70000000000002,9.105981160637365
213.8,9.131968794421297
213.90000000000003,9.15800812440973
214.00000000000003,9.184099199812566
214.10000000000002,9.210242069799657
214.20000000000002,9.236436783500706
214.3,9.262683390005176
214.40000000000003,9.28898193836227
214.50000000000003,9.315332477580789
214.60000000000002,9.34173505662914
214.70000000000005,9.368189724435199
214.80000000000004,9.39469652988626
214.90000000000003,9.421255521828984
215.00000000000003,9.447866749069306
215.10000000000002,9.474530260372372
215.20000000000005,9.50124610446249
215.30000000000004,9.528014330022978
215.40000000000003,9.554834985696223
215.50000000000006,9.581708120083531
215.60000000000005,9.608633781745024
215.70000000000005,9.635612019199666
215.80000000000004,9.662642880925134
215.90000000000003,9.689726415357764
216.00000000000006,9.71686267089248
216.10000000000005,9.744051695882717
216.20000000000005,9.771293538640371
216.30000000000007,9.798588247435756
216.40000000000006,9.825935870497451
216.50000000000006,9.853336456012329
216.60000000000005,9.88079005212543
216.70000000000005,9.908296706939934
216.80000000000007,9.935856468517072
216.90000000000006,9.963469384876039
217.00000000000006,9.991135503993986
217.10000000000008,10.018854873805907
217.20000000000007,10.046627542204599
217.30000000000007,10.074453557040577
217.40000000000006,10.102332966122033
217.50000000000006,10.130265817214749
217.60000000000008,10.158252158042067
217.70000000000007,10.186292036284774
217.80000000000007,10.214385499581079
217.9000000000001,10.242532595526548
218.00000000000009,10.270733371674012
218.10000000000008,10.298987875533538
218.20000000000007,10.327296154572357
218.30000000000007,10.355658256214785
218.4000000000001,10.384074227842188
218.50000000000009,10.412544116792887
218.60000000000008,10.44106797036213
218.7000000000001,10.469645835802023
218.8000000000001,10.498277760321434
218.9000000000001,10.526963791085986
219.00000000000009,10.555703975217979
219.10000000000008,10.584498359796308
219.2000000000001,10.613346991856428
219.3000000000001,10.642249918390268
219.4000000000001,10.6712071863462
219.5000000000001,10.700218842628985
219.6000000000001,10.72928493409966
219.7000000000001,10.758405507575551
219.8000000000001,10.787580609830156
219.9000000000001,10.816810287593148
220.0000000000001,10.846094587550251
220.1000000000001,10.875433556343197
220.2000000000001,10.90482724056974
220.30000000000013,10.934275686783495
220.40000000000012,10.96377894149394
220.5000000000001,10.993337051166364
220.6000000000001,11.022950062221785
220.7000000000001,11.052618021036894
220.80000000000013,11.082340973944044
220.90000000000012,11.112118967231114
221.0000000000001,11.141952047141542
221.10000000000014,11.171840259874212
221.20000000000013,11.201783651583392
221.30000000000013,11.231782268378732
221.40000000000012,11.261836156325176
221.5000000000001,11.29194536144292
221.60000000000014,11.322109929707326
221.70000000000013,11.352329907048901
221.80000000000013,11.382605339353248
221.90000000000015,11.412936272460996
222.00000000000014,11.443322752167733
222.10000000000014,11.473764824223988
222.20000000000013,11.504262534335167
222.30000000000013,11.534815928161496
222.40000000000015,11.565425051317964
222.50000000000014,11.596089949374253
222.60000000000014,11.62681066785476
222.70000000000016,11.65758725223846
222.80000000000015,11.68841974795889
222.90000000000015,11.719308200404129
223.00000000000014,11.750252654916675
223.10000000000014,11.781253156793486
223.20000000000016,11.812309751285861
223.30000000000015,11.84342248359938
223.40000000000015,11.874591398893937
223.50000000000017,11.905816542283613
223.60000000000016,11.937097958836652
223.70000000000016,11.968435693575413
223.80000000000015,11.99982979147634
223.90000000000015,12.031280297469877
224.00000000000017,12.062787256440457
224.10000000000016,12.094350713226408
224.20000000000016,12.125970712619953
224.30000000000018,12.157647299367147
224.40000000000018,12.1893805181678
224.50000000000017,12.22117041367549
224.60000000000016,12.253017030497467
224.70000000000016,12.284920413194609
224.80000000000018,12.316880606281428
224.90000000000018,12.348897654225926
225.00000000000017,12.380971601449653
225.1000000000002,12.413102492327605
225.2000000000002,12.445290371188182
225.30000000000018,12.477535282313166
225.40000000000018,12.509837269937641
225.50000000000017,12.542196378249994
225.6000000000002,12.574612651391831
225.7000000000002,12.607086133457933
225.80000000000018,12.63961686849626
225.9000000000002,12.672204900507863
226.0000000000002,12.70485027344683
226.1000000000002,12.737553031220276
226.2000000000002,12.770313217688305
226.30000000000018,12.803130876663932
226.4000000000002,12.836006051913078
226.5000000000002,12.868938787154478
226.6000000000002,12.901929126059695
226.70000000000022,12.934977112253057
226.8000000000002,12.968082789311596
226.9000000000002,13.001246200765015
227.0000000000002,13.034467390095681
227.1000000000002,13.067746400738534
227.20000000000022,13.1010832760811
227.3000000000002,13.134478059463373
227.4000000000002,13.167930794177854
227.50000000000023,13.20144152346949
227.60000000000022,13.235010290535593
227.70000000000022,13.268637138525843
227.8000000000002,13.302322110542246
227.9000000000002,13.336065249639065
228.00000000000023,13.369866598822842
228.10000000000022,13.40372620105224
228.20000000000022,13.437644099238181
228.30000000000024,13.471620336243648
228.40000000000023,13.505654954883717
228.50000000000023,13.539747997925534
228.60000000000022,13.573899508088205
228.70000000000022,13.60810952804288
228.80000000000024,13.642378100412602
228.90000000000023,13.676705267772299
229.00000000000023,13.711091072648793
229.10000000000025,13.745535557520736
229.20000000000024,13.78003876481851
229.30000000000024,13.814600736924323
229.40000000000023,13.84922151617207
229.50000000000023,13.883901144847307
229.60000000000025,13.918639665187301
229.70000000000024,13.953437119380844
229.80000000000024,13.988293549568365
229.90000000000026,14.023208997841826
230.00000000000026,14.058183506244667
230.10000000000025,14.093217116771836
230.20000000000024,14.128309871369702
230.30000000000024,14.163461811936058
230.40000000000026,14.198672980320062
230.50000000000026,14.233943418322161
230.60000000000025,14.269273167694191
230.70000000000027,14.3046622701392
230.80000000000027,14.340110767311506
230.90000000000026,14.375618700816613
231.00000000000026,14.411186112211205
231.10000000000025,14.446813043003113
231.20000000000027,14.482499534651305
231.30000000000027,14.51824562856577
231.40000000000026,14.554051366107583
231.50000000000028,14.589916788588845
231.60000000000028,14.625841937272602
231.70000000000027,14.66182685337288
231.80000000000027,14.697871578054626
231.90000000000026,14.73397615243369
232.00000000000028,14.770140617576786
232.10000000000028,14.80636501450141
232.20000000000027,14.842649384175935
232.3000000000003,14.878993767519464
232.4000000000003,14.915398205401837
232.50000000000028,14.951862738643657
232.60000000000028,14.988387408016141
232.70000000000027,15.024972254241238
232.8000000000003,15.061617317991487
232.9000000000003,15.098322639890021
233.00000000000028,15.135088260510548
233.1000000000003,15.171914220377358
233.2000000000003,15.208800559965193
233.3000000000003,15.245747319699344
233.4000000000003,15.282754539955514
233.50000000000028,15.319822261059883
233.6000000000003,15.356950523289044
233.7000000000003,15.394139366869892
233.8000000000003,15.431388831979758
233.90000000000032,15.468698958746295
234.0000000000003,15.506069787247416
234.1000000000003,15.543501357511316
234.2000000000003,15.580993709516484
234.3000000000003,15.618546883191607
234.40000000000032,15.656160918415559
234.5000000000003,15.693835855017387
234.6000000000003,15.731571732776311
234.70000000000033,15.769368591421685
234.80000000000032,15.807226470632921
234.90000000000032,15.84514541003952
235.0000000000003,15.883125449221062
235.1000000000003,15.921166627707127
235.20000000000033,15.959268984977326
235.30000000000032,15.997432560461226
235.40000000000032,16.035657393538344
235.50000000000034,16.07394352353817
235.60000000000034,16.11229098974006
235.70000000000033,16.15069983137329
235.80000000000032,16.189170087617
235.90000000000032,16.227701797600147
236.00000000000034,16.266295000401563
236.10000000000034,16.304949735049806
236.20000000000033,16.343666040523267
236.30000000000035,16.3824439557501
236.40000000000035,16.421283519608124
236.50000000000034,16.460184770924958
236.60000000000034,16.499147748477853
236.70000000000033,16.538172490993766
236.80000000000035,16.5772590371493
236.90000000000035,16.61640742557066
237.00000000000034,16.65561769483371
237.10000000000036,16.69488988346386
237.20000000000036,16.734224029936108
237.30000000000035,16.773620172675013
237.40000000000035,16.81307835005463
237.50000000000034,16.852598600398593
237.60000000000036,16.89218096198
237.70000000000036,16.931825473021355
237.80000000000035,16.9715321716947
237.90000000000038,17.011301096121525
238.00000000000037,17.051132284372656
238.10000000000036,17.091025774468385
238.20000000000036,17.13098160437838
238.30000000000035,17.170999812021662
238.40000000000038,17.211080435266574
238.50000000000037,17.251223511930853
238.60000000000036,17.291429079781484
238.7000000000004,17.331697176534806
238.80000000000038,17.372027839856358
238.90000000000038,17.41242110736102
239.00000000000037,17.45287701661289
239.10000000000036,17.493395605125283
239.2000000000004,17.53397691036075
239.30000000000038,17.574620969731
239.40000000000038,17.615327820596967
239.5000000000004,17.65609750026874
239.6000000000004,17.69693004600553
239.7000000000004,17.737825495015738
239.80000000000038,17.778783884456804
239.90000000000038,17.819805251435376
240.0000000000004,17.860889633007123
240.1000000000004,17.90203706617678
240.2000000000004,17.943247587898203
240.3000000000004,17.98452123507426
240.4000000000004,18.025858044556838
240.5000000000004,18.067258053146876
240.6000000000004,18.108721297594315
240.7000000000004,18.15024781459807
240.8000000000004,18.191837640806053
240.9000000000004,18.233490812815138
241.0000000000004,18.275207367171134
241.10000000000042,18.31698734036883
241.20000000000041,18.35883076885191
241.3000000000004,18.400737689013003
241.4000000000004,18.442708137193616
241.5000000000004,18.48474214968415
241.60000000000042,18.526839762723917
241.70000000000041,18.56900101250105
241.8000000000004,18.611225935152596
241.90000000000043,18.6535145667644
242.00000000000043,18.69586694337115
242.10000000000042,18.738283100956377
242.20000000000041,18.780763075452402
242.3000000000004,18.823306902740367
242.40000000000043,18.86591461865023
242.50000000000043,18.90858625896065
242.60000000000042,18.95132185939912
242.70000000000044,18.99412145564191
242.80000000000044,19.036985083313976
242.90000000000043,19.079912777989083
243.00000000000043,19.122904575189665
243.10000000000042,19.165960510386956
243.20000000000044,19.20908061900084
243.30000000000044,19.252264936399914
243.40000000000043,19.2955134979015
243.50000000000045,19.3388263387716
243.60000000000045,19.382203494224882
243.70000000000044,19.425644999424662
243.80000000000044,19.469150889482986
243.90000000000043,19.512721199460486
244.00000000000045,19.556355964366514
244.10000000000045,19.60005521915899
244.20000000000044,19.6438189987445
244.30000000000047,19.68764733797827
244.40000000000046,19.731540271664088
244.50000000000045,19.775497834554415
244.60000000000045,19.819520061350296
244.70000000000044,19.86360698670135
244.80000000000047,19.907758645205824
244.90000000000046,19.951975071410526
245.00000000000045,19.996256299810828
245.10000000000048,20.04060236485073
245.20000000000047,20.08501330092273
245.30000000000047,20.12948914236793
245.40000000000046,20.174029923475967
245.50000000000045,20.218635678485047
245.60000000000048,20.26330644158194
245.70000000000047,20.30804224690188
245.80000000000047,20.352843128528697
245.9000000000005,20.397709120494774
246.00000000000048,20.44264025678093
246.10000000000048,20.487636571316585
246.20000000000047,20.532698097979647
246.30000000000047,20.57782487059654
246.4000000000005,20.62301692294223
246.50000000000048,20.668274288740115
246.60000000000048,20.713597001662116
246.7000000000005,20.75898509532873
246.8000000000005,20.80443860330885
246.9000000000005,20.849957559119886
247.00000000000048,20.895541996227806
247.10000000000048,20.941191948046963
247.2000000000005,20.986907447940272
247.3000000000005,21.03268852921906
247.4000000000005,21.07853522514321
247.5000000000005,21.12444756892102
247.6000000000005,21.17042559370926
247.7000000000005,21.21646933261322
247.8000000000005,21.262578818686624
247.9000000000005,21.308754084931678
248.0000000000005,21.35499516429905
248.1000000000005,21.40130208968788
248.2000000000005,21.447674893945745
248.30000000000052,21.49411360986876
248.40000000000052,21.540618270201374
248.5000000000005,21.587188907636616
248.6000000000005,21.63382555481595
248.7000000000005,21.68052824432926
248.80000000000052,21.727297008714956
248.90000000000052,21.774131880459805
249.0000000000005,21.821032891999145
249.10000000000053,21.868000075716722
249.20000000000053,21.91503346394471
249.30000000000052,21.962133088963846
249.40000000000052,22.00929898300322
249.5000000000005,22.05653117824045
249.60000000000053,22.10382970680159
249.70000000000053,22.151194600761173
249.80000000000052,22.198625892142193
249.90000000000055,22.24612361291609
250.00000000000054,22.29368779500281
250.10000000000053,22.341318470270725
250.20000000000053,22.38901567053675
250.30000000000052,22.436779427566204
250.40000000000055,22.4846097730729
250.50000000000054,22.532506738719135
250.60000000000053,22.580470356115676
250.70000000000056,22.628500656821842
250.80000000000055,22.676597672345284
250.90000000000055,22.72476143414231
251.00000000000054,22.772991973617614
251.10000000000053,22.8212893221244
251.20000000000056,22.86965351096441
251.30000000000055,22.91808457138783
251.40000000000055,22.9665825345934
251.50000000000057,23.01514743172834
251.60000000000056,23.06377929388837
251.70000000000056,23.112478152117756
251.80000000000055,23.161244037409258
251.90000000000055,23.21007698070418
252.00000000000057,23.258977012892323
252.10000000000056,23.307944164812042
252.20000000000056,23.356978467250247
252.30000000000058,23.40607995094233
252.40000000000057,23.455248646572294
252.50000000000057,23.504484584772612
252.60000000000056,23.553787796124386
252.70000000000056,23.60315831115728
252.80000000000058,23.65259616034949
252.90000000000057,23.702101374127743
253.00000000000057,23.75167398286743
253.1000000000006,23.801314016892512
253.20000000000059,23.851021506475437
253.30000000000058,23.900796481837368
253.40000000000057,23.950638973148024
253.50000000000057,24.000549010525702
253.6000000000006,24.050526624037364
253.70000000000059,24.10057184369856
253.80000000000058,24.150684699473448
253.9000000000006,24.200865221274892
254.0000000000006,24.251113438964293
254.1000000000006,24.30142938235178
254.20000000000059,24.3518130811961
254.30000000000058,24.402264565204682
254.4000000000006,24.452783864033606
254.5000000000006,24.503371007287626
254.6000000000006,24.554026024520198
254.7000000000006,24.604748945233464
254.8000000000006,24.655539798878237
254.9000000000006,24.706398614854074
255.0000000000006,24.75732542250924
255.1000000000006,24.808320251140692
255.2000000000006,24.859383129994207
255.3000000000006,24.910514088264172
255.4000000000006,24.96171315509384
255.50000000000063,25.01298035957516
255.60000000000062,25.06431573074888
255.7000000000006,25.115719297604485
255.8000000000006,25.16719108908027
255.9000000000006,25.218731134063336
256.0000000000006,25.2703394613896
256.1000000000006,25.322016099843708
256.2000000000006,25.373761078159266
256.30000000000064,25.42557442501858
256.4000000000006,25.47745616905287
256.5000000000006,25.52940633884222
256.60000000000065,25.58142496291554
256.7000000000006,25.633512069750587
256.80000000000064,25.68566768777411
256.90000000000066,25.737891845361652
257.0000000000006,25.79018457642005
257.10000000000065,25.8425458981128
257.2000000000006,25.89497584419021
257.30000000000064,25.947474442823644
257.40000000000066,26.00004172213324
257.5000000000006,26.05267771018816
257.60000000000065,26.105382435006618
257.7000000000006,26.158155924555672
257.80000000000064,26.210998206751476
257.90000000000066,26.263909309459173
258.0000000000006,26.31688926049282
258.10000000000065,26.369938087615665
258.20000000000067,26.423055818539922
258.30000000000064,26.47624248092679
258.40000000000066,26.5294981023867
258.5000000000007,26.58282271047898
258.60000000000065,26.63621633271213
258.70000000000067,26.689678996543826
258.80000000000064,26.7432107293807
258.90000000000066,26.796811558578668
259.0000000000007,26.850481511442712
259.10000000000065,26.90422061522691
259.20000000000067,26.95802889713465
259.30000000000064,27.01190638431837
259.40000000000066,27.065853103879817
259.5000000000007,27.119869082869844
259.60000000000065,27.173954348288532
259.70000000000067,27.22810892708533
259.8000000000007,27.28233284615877
259.90000000000066,27.336626132356677
260.0000000000007,27.390988812476287
260.1000000000007,27.445420913263995
260.20000000000067,27.499922461415476
260.3000000000007,27.554493483575865
260.40000000000066,27.6091340063395
260.5000000000007,27.663844056250163
260.6000000000007,27.718623659800926
260.70000000000067,27.77347284343425
260.8000000000007,27.828391633542065
260.90000000000066,27.883380056465565
261.0000000000007,27.938438138495567
261.1000000000007,27.993565905872117
261.20000000000067,28.04876338478483
261.3000000000007,28.104030601372813
261.4000000000007,28.159367581724567
261.5000000000007,28.214774351878138
261.6000000000007,28.270250937821128
261.7000000000007,28.32579736549062
261.8000000000007,28.381413660773198
261.9000000000007,28.437099849505177
262.0000000000007,28.492855957472216
262.1000000000007,28.548682010409834
262.2000000000007,28.604578034002927
262.3000000000007,28.660544053886152
262.4000000000007,28.71658009564377
262.5000000000007,28.772686184809697
262.6000000000007,28.82886234686759
262.7000000000007,28.885108607250743
262.8000000000007,28.941424991342092
262.9000000000007,28.997811524474493
263.00000000000074,29.05426823193038
263.1000000000007,29.110795138942002
263.2000000000007,29.16739227069147
263.30000000000075,29.224059652310537
263.4000000000007,29.280797308880857
263.50000000000074,29.337605265434025
263.6000000000007,29.39448354695123
263.7000000000007,29.451432178363817
263.80000000000075,29.508451184552804
263.9000000000007,29.56554059034918
264.00000000000074,29.62270042053395
264.1000000000007,29.679930699837882
264.2000000000007,29.737231452941888
264.30000000000075,29.794602704476766
264.4000000000007,29.852044479023245
264.50000000000074,29.9095568011122
264.60000000000076,29.96713969522454
264.7000000000007,30.024793185791022
264.80000000000075,30.082517297192773
264.9000000000008,30.14031205376081
265.00000000000074,30.19817747977624
265.10000000000076,30.256113599470517
265.2000000000007,30.314120437024954
265.30000000000075,30.372198016571275
265.4000000000008,30.43034636219128
265.50000000000074,30.488565497916923
265.60000000000076,30.546855447730533
265.7000000000007,30.60521623556454
265.80000000000075,30.66364788530178
265.9000000000008,30.72215042077525
266.00000000000074,30.780723865768238
266.10000000000076,30.83936824401455
266.2000000000008,30.89808357919815
266.30000000000075,30.956869894953364
266.4000000000008,31.01572721486508
266.5000000000008,31.074655562468433
266.60000000000076,31.133654961249007
266.7000000000008,31.192725434642917
266.80000000000075,31.25186700603664
266.9000000000008,31.31107969876728
267.0000000000008,31.370363536122298
267.10000000000076,31.429718541339742
267.2000000000008,31.489144737608285
267.30000000000075,31.54864214806706
267.4000000000008,31.60821079580593
267.5000000000008,31.667850703865227
267.60000000000076,31.727561895236022
267.7000000000008,31.78734439286005
267.8000000000008,31.847198219629632
267.9000000000008,31.907123398387846
268.0000000000008,31.96711995192858
268.1000000000008,32.027187902996324
268.2000000000008,32.08732727428637
268.3000000000008,32.14753808844493
268.4000000000008,32.20782036806885
268.5000000000008,32.26817413570596
268.6000000000008,32.32859941385483
268.7000000000008,32.38909622496493
268.8000000000008,32.44966459143673
268.9000000000008,32.510304535621465
269.0000000000008,32.571016079821504
269.1000000000008,32.63179924629003
269.2000000000008,32.69265405723125
269.3000000000008,32.75358053480047
269.40000000000083,32.81457870110395
269.5000000000008,32.87564857819898
269.6000000000008,32.93679018809408
269.70000000000084,32.998003552748735
269.8000000000008,33.05928869085545
269.90000000000083,33.120645630679064
270.0000000000008,33.182074390847376
270.1000000000008,33.2435749931246
270.20000000000084,33.30514745922617
270.3000000000008,33.36679181081869
270.40000000000083,33.42850806952015
270.5000000000008,33.49029625689975
270.6000000000008,33.55215639447806
270.70000000000084,33.61408850372696
270.8000000000008,33.6760926060697
270.90000000000083,33.73816872288096
271.00000000000085,33.80031687548678
271.1000000000008,33.86253708516463
271.20000000000084,33.92482937314355
271.30000000000086,33.987193760603944
271.40000000000083,34.04963026867776
271.50000000000085,34.11213891844855
271.6000000000008,34.17471973095132
271.70000000000084,34.2373727271728
271.80000000000086,34.30009792805121
271.90000000000083,34.36289535447641
272.00000000000085,34.42576502729001
272.1000000000008,34.48870696728521
272.20000000000084,34.55172119520703
272.30000000000086,34.61480773175211
272.40000000000083,34.677966597568876
272.50000000000085,34.741197813257635
272.6000000000009,34.80450139937038
272.70000000000084,34.867877376411
272.80000000000086,34.931325764835265
272.9000000000009,34.9948465850508
273.00000000000085,35.058439857417135
273.1000000000009,35.1221056022458
273.20000000000084,35.18584383980019
273.30000000000086,35.249654590295826
273.4000000000009,35.31353787390011
273.50000000000085,35.37749371073253
273.6000000000009,35.441522120864725
273.70000000000084,35.50562312432029
273.80000000000086,35.569796741075066
273.9000000000009,35.634042991057
274.00000000000085,35.69836189414613
274.1000000000009,35.76275347017482
274.2000000000009,35.82721773892762
274.30000000000086,35.89175472014124
274.4000000000009,35.95636443350485
274.5000000000009,36.02104689865975
274.6000000000009,36.08580213519963
274.7000000000009,36.15063016267066
274.80000000000086,36.21553100057116
274.9000000000009,36.28050466835212
275.0000000000009,36.345551185416774
275.1000000000009,36.4106705711209
275.2000000000009,36.47586284477283
275.30000000000086,36.54112802563324
275.4000000000009,36.6064661329156
275.5000000000009,36.671877185785746
275.6000000000009,36.73736120336219
275.7000000000009,36.802918204716136
275.8000000000009,36.86854820887136
275.9000000000009,36.93425123480435
276.0000000000009,37.00002730144435
276.10000000000093,37.065876427673295
276.2000000000009,37.131798632325854
276.3000000000009,37.19779393418964
276.4000000000009,37.26386235200491
276.5000000000009,37.330003904464945
276.60000000000093,37.39621861021574
276.7000000000009,37.462506487856295
276.8000000000009,37.52886755593858
276.9000000000009,37.59530183296742
277.0000000000009,37.66180933740078
277.10000000000093,37.72839008764949
277.2000000000009,37.79504410207748
277.3000000000009,37.86177139900191
277.4000000000009,37.92857199669271
277.5000000000009,37.99544591337338
277.60000000000093,38.062393167220236
277.70000000000095,38.12941377636292
277.8000000000009,38.19650775888424
277.90000000000094,38.26367513282041
278.0000000000009,38.3309159161607
278.10000000000093,38.398230126847885
278.20000000000095,38.46561778277795
278.3000000000009,38.53307890180024
278.40000000000094,38.60061350171767
278.5000000000009,38.66822160028629
278.60000000000093,38.73590321521591
278.70000000000095,38.80365836416961
278.800000000001,38.87148706476406
278.90000000000094,38.939389334569405
279.0000000000009,39.00736519110948
279.10000000000093,39.07541465186165
279.20000000000095,39.14353773425691
279.300000000001,39.21173445567994
279.40000000000094,39.28000483346901
279.50000000000097,39.34834888491627
279.60000000000093,39.416766627267435
279.70000000000095,39.485258077722236
279.800000000001,39.55382325343399
279.90000000000094,39.62246217150988
280.00000000000097,39.691174849011155
280.10000000000093,39.759961302952675
280.20000000000095,39.828821550303466
280.300000000001,39.89775560798637
280.400000000001,39.9667634928783
280.50000000000097,40.035845221810035
280.60000000000093,40.10500081156663
280.70000000000095,40.17423027888709
280.800000000001,40.24353364046455
280.900000000001,40.31291091294622
281.00000000000097,40.38236211293358
281.100000000001,40.45188725698228
281.20000000000095,40.52148636160216
281.300000000001,40.59115944325734
281.400000000001,40.660906518366296
281.50000000000097,40.7307276033017
281.600000000001,40.80062271439073
281.70000000000095,40.87059186791479
281.800000000001,40.94063508010985
281.900000000001,41.01075236716621
282.000000000001,41.08094374522874
282.100000000001,41.15120923039666
282.20000000000095,41.221548838723926
282.300000000001,41.29196258621897
282.400000000001,41.36245048884487
282.500000000001,41.43301256251925
282.600000000001,41.50364882311439
282.700000000001,41.57435928645742
282.800000000001,41.64514396833004
282.900000000001,41.71600288446882
283.000000000001,41.78693605056502
283.100000000001,41.85794348226476
283.200000000001,41.92902519516906
283.300000000001,42.00018120483372
283.400000000001,42.07141152676961
283.500000000001,42.14271617644239
283.60000000000105,42.21409516927279
283.700000000001,42.285548520636496
283.800000000001,42.357076245864235
283.900000000001,42.42867836024193
284.000000000001,42.500354879010494
284.10000000000105,42.572105817365966
284.200000000001,42.64393119045957
284.30000000000103,42.71583101339783
284.400000000001,42.78780530124233
284.500000000001,42.859854069010126
284.60000000000105,42.9319773316734
284.700000000001,43.004175104159714
284.80000000000103,43.07644740135207
284.900000000001,43.148794238088705
285.000000000001,43.22121562916348
285.10000000000105,43.29371158932559
285.20000000000107,43.3662821332797
285.30000000000103,43.43892727568607
285.400000000001,43.51164703116047
285.500000000001,43.584441414274366
285.60000000000105,43.65731043955472
285.70000000000107,43.73025412148419
285.80000000000103,43.80327247450106
285.90000000000106,43.876365512999485
286.000000000001,43.94953325132924
286.10000000000105,44.022775703795986
286.20000000000107,44.09609288466109
286.30000000000103,44.16948480814181
286.40000000000106,44.24295148841137
286.500000000001,44.316492939598774
286.60000000000105,44.390109175789135
286.70000000000107,44.46380021102341
286.8000000000011,44.537566059298626
286.90000000000106,44.61140673456781
287.000000000001,44.68532225074017
287.10000000000105,44.75931262168101
287.20000000000107,44.833377861211666
287.3000000000011,44.9075179831098
287.40000000000106,44.98173300110916
287.5000000000011,45.05602292889992
287.60000000000105,45.13038778012829
287.70000000000107,45.20482756839707
287.8000000000011,45.27934230726514
287.90000000000106,45.35393201024795
288.0000000000011,45.428596690817315
288.10000000000105,45.50333636240145
288.20000000000107,45.57815103838514
288.3000000000011,45.6530407321096
288.4000000000011,45.72800545687265
288.5000000000011,45.80304522592864
288.60000000000105,45.87816005248854
288.70000000000107,45.953349949720135
288.8000000000011,46.02861493074766
288.9000000000011,46.10395500865219
289.0000000000011,46.17937019647146
289.1000000000011,46.25486050720019
289.20000000000107,46.33042595378968
289.3000000000011,46.406066549148285
289.4000000000011,46.48178230614109
289.5000000000011,46.55757323759016
289.6000000000011,46.63343935627457
289.70000000000107,46.709380674930316
289.8000000000011,46.78539720625044
289.9000000000011,46.86148896288509
290.00000000000114,46.937655957441386
290.1000000000011,47.01389820248362
290.20000000000107,47.09021571053333
290.3000000000011,47.16660849406921
290.4000000000011,47.24307656552712
290.50000000000114,47.31961993730026
290.6000000000011,47.39623862173898
290.7000000000011,47.47293263115124
290.8000000000011,47.54970197780206
290.9000000000011,47.62654667391407
291.00000000000114,47.70346673166729
291.1000000000011,47.78046216319906
291.2000000000011,47.857532980604546
291.3000000000011,47.934679195936084
291.4000000000011,48.01190082120385
291.50000000000114,48.08919786837551
291.60000000000116,48.16657034937639
291.7000000000011,48.24401827608945
291.8000000000011,48.32154166035548
291.9000000000011,48.39914051397297
292.00000000000114,48.47681484869811
292.10000000000116,48.554564676245036
292.2000000000011,48.6323900082855
292.30000000000115,48.710290856449475
292.4000000000011,48.788267232324614
292.50000000000114,48.866319147456636
292.60000000000116,48.94444661334922
292.7000000000011,49.02264964146394
292.80000000000115,49.10092824322072
292.9000000000011,49.179282429997244
293.00000000000114,49.257712213129665
293.10000000000116,49.336217603912004
293.2000000000012,49.41479861359667
293.30000000000115,49.49345525339422
293.4000000000011,49.57218753447345
293.50000000000114,49.65099546796168
293.60000000000116,49.72987906494427
293.7000000000012,49.8088383364652
293.80000000000115,49.887873293526624
293.90000000000117,49.96698394708942
294.00000000000114,50.046170308072696
294.10000000000116,50.12543238735431
294.2000000000012,50.20477019577045
294.30000000000115,50.28418374411599
294.40000000000117,50.36367304314453
294.50000000000114,50.4432381035681
294.60000000000116,50.522878936057666
294.7000000000012,50.602595551242814
294.8000000000012,50.68238795971184
294.90000000000117,50.76225617201179
295.00000000000114,50.84220019864882
295.10000000000116,50.92222005008775
295.2000000000012,51.00231573675236
295.3000000000012,51.08248726902531
295.40000000000117,51.162734657248265
295.5000000000012,51.24305791172199
295.60000000000116,51.32345704270619
295.7000000000012,51.4039320604198
295.8000000000012,51.48448297504067
295.90000000000117,51.56510979670591
296.0000000000012,51.645812535511965
296.10000000000116,51.72659120151421
296.2000000000012,51.80744580472755
296.3000000000012,51.888376355126056
296.4000000000012,51.9693828626432
296.5000000000012,52.0504653371717
296.60000000000116,52.131623788563815
296.7000000000012,52.21285822663132
296.8000000000012,52.29416866114519
296.9000000000012,52.37555510183621
297.0000000000012,52.45701755839445
297.1000000000012,52.53855604046983
297.2000000000012,52.620170557671685
297.3000000000012,52.70186111956916
297.4000000000012,52.783627735690985
297.5000000000012,52.865470415525685
297.6000000000012,52.94738916852151
297.7000000000012,53.02938400408655
297.8000000000012,53.11145493158875
297.9000000000012,53.19360196035584
298.00000000000125,53.27582509967557
298.1000000000012,53.35812435879554
298.2000000000012,53.440499746923386
298.3000000000012,53.522951273226866
298.4000000000012,53.60547894683356
298.50000000000125,53.68808277683142
298.6000000000012,53.77076277226816
298.70000000000124,53.853518942152085
298.8000000000012,53.93635129545138
298.9000000000012,54.01925984109466
299.00000000000125,54.1022445879707
299.1000000000012,54.18530554492858
299.20000000000124,54.26844272077784
299.3000000000012,54.35165612428827
299.4000000000012,54.434945764190196
299.50000000000125,54.518311649174336
299.6000000000013,54.60175378789193
299.70000000000124,54.68527218895463
299.8000000000012,54.768866860934835
299.9000000000012,54.85253781236545
300.00000000000125,54.93628505174006
300.1000000000013,55.02010858751282
300.20000000000124,55.10400842809873
300.30000000000126,55.18798458187344
300.4000000000012,55.27203705717339
300.50000000000125,55.35616586229599
300.6000000000013,55.44037100549934
300.70000000000124,55.52465249500236
300.80000000000126,55.609010338985215
300.9000000000012,55.6934445455887
301.00000000000125,55.777955122914854
301.1000000000013,55.86254207902661
301.2000000000013,55.947205421948055
301.30000000000126,56.03194515966432
301.4000000000012,56.11676130012177
301.50000000000125,56.20165385122791
301.6000000000013,56.286622820851505
301.7000000000013,56.37166821682254
301.80000000000126,56.45679004693217
301.9000000000013,56.541988318933264
302.00000000000125,56.62726304053958
302.1000000000013,56.7126142194267
302.2000000000013,56.79804186323142
302.30000000000126,56.88354597955197
302.4000000000013,56.96912657594833
302.50000000000125,57.054783659941805
302.6000000000013,57.14051723901547
302.7000000000013,57.226327320613876
302.8000000000013,57.312213912143356
302.9000000000013,57.3981770209718
303.00000000000125,57.484216654429
303.1000000000013,57.570332819806495
303.2000000000013,57.65652552435755
303.3000000000013,57.74279477529731
303.4000000000013,57.8291405798028
303.5000000000013,57.91556294501305
303.6000000000013,58.00206187802888
303.7000000000013,58.08863738591338
303.8000000000013,58.175289475691386
303.9000000000013,58.26201815434991
304.0000000000013,58.348823428838195
304.1000000000013,58.43570530606739
304.2000000000013,58.522663792911075
304.3000000000013,58.609698896204854
304.40000000000134,58.69681062274668
304.5000000000013,58.78399897929673
304.6000000000013,58.87126397257761
304.7000000000013,58.95860560927429
304.8000000000013,59.046023896034015
304.90000000000134,59.13351883946661
305.0000000000013,59.22109044614422
305.10000000000133,59.30873872260169
305.2000000000013,59.39646367533628
305.3000000000013,59.48426531080793
305.40000000000134,59.57214363543912
305.5000000000013,59.660098655615045
305.60000000000133,59.74813037768361
305.7000000000013,59.8362388079554
305.8000000000013,59.924423952703854
305.90000000000134,60.01268581816517
306.00000000000136,60.10102441053837
306.10000000000133,60.18943973598536
306.2000000000013,60.27793180063108
306.3000000000013,60.36650061056335
306.40000000000134,60.455146171832965
306.50000000000136,60.54386849045377
306.60000000000133,60.63266757240259
306.70000000000135,60.72154342361961
306.8000000000013,60.81049605000791
306.90000000000134,60.89952545743394
307.00000000000136,60.98863165172721
307.10000000000133,61.07781463868048
307.20000000000135,61.16707442405
307.3000000000013,61.25641101355513
307.40000000000134,61.34582441287883
307.50000000000136,61.435314627667225
307.6000000000014,61.524881663529996
307.70000000000135,61.61452552604028
307.8000000000013,61.704246220734774
307.90000000000134,61.79404375311374
308.00000000000136,61.88391812864102
308.1000000000014,61.97386935274393
308.20000000000135,62.063897430813604
308.3000000000014,62.15400236820504
308.40000000000134,62.244184181459374
308.50000000000136,62.334442853502765
308.6000000000014,62.42477840071545
308.70000000000135,62.51519082830745
308.8000000000014,62.60568014145261
308.90000000000134,62.69624634528881
309.00000000000136,62.78688944491786
309.1000000000014,62.877609445405454
309.2000000000014,62.968406351781496
309.3000000000014,63.05928016903981
309.40000000000134,63.15023090213836
309.50000000000136,63.241258555999494
309.6000000000014,63.33236313550944
309.7000000000014,63.423544645518774
309.8000000000014,63.514803090842285
309.9000000000014,63.60613847625919
310.00000000000136,63.69755080651285
310.1000000000014,63.7890400863113
310.2000000000014,63.880606320326635
310.3000000000014,63.97224951319557
310.4000000000014,64.06396966951934
310.50000000000136,64.15576679386358
310.6000000000014,64.24764089075867
310.7000000000014,64.33959196469942
310.80000000000143,64.43162002014535
310.9000000000014,64.5237250615206
311.00000000000136,64.61590709321402
311.1000000000014,64.70816611957933
311.2000000000014,64.80050214493494
311.30000000000143,64.89291517356403
311.4000000000014,64.98540520971473
311.5000000000014,65.07797225760001
311.6000000000014,65.17061632139777
311.7000000000014,65.26333740525097
311.80000000000143,65.35613551326745
311.9000000000014,65.44901064952012
312.0000000000014,65.54196281804718
312.1000000000014,65.63499202285155
312.2000000000014,65.72809826790171
312.30000000000143,65.8212815571311
312.40000000000146,65.91454189443843
312.5000000000014,66.00787928368764
312.6000000000014,66.10129372870811
312.7000000000014,66.19478523329455
312.80000000000143,66.28835380120691
312.90000000000146,66.38199943617057
313.0000000000014,66.4757221418765
313.10000000000144,66.56952192198113
313.2000000000014,66.66339878010626
